{
  "istart": 0,
  "icharg": 2,
  "prec": "acc",
  "lreal": false,
  "kspacing": 0.15,
  "kgamma": true,
  "algo": "normal",
  "ediff": 1E-6,
  "nelmin": 5,
  "nelm": 60,
  "ismear": 1,
  "sigma": 0.15,
  "lasph": true,
  "isif": 3,
  "ibrion": 2,
  "ediffg": -1E-2,
  "potim": 0.187,
  "nsw": 60,
  "ispin": 2,
  "lcharg": true,
  "lwave": false,
  "lelf": false,
  "kpar": 4,
  "ncore": 12,
  "encut_scaling_factor": 1.5,
  "maximum_encut": 600,
  "potcar_settings": {"version": "54", "xc": "PBE", "element_potcars": {}}
}
