{
  "istart": 1,
  "icharg": 1,
  "prec": "acc",
  "lreal": false,
  "encut": 520,
  "kspacing": 0.15,
  "kgamma": true,
  "algo": "normal",
  "ediff": 1E-6,
  "nelmin": 5,
  "nelm": 60,
  "ismear": -5,
  "sigma": 0.15,
  "lasph": true,
  "ibrion": -1,
  "isif": 2,
  "nsw": 0,
  "ispin": 2,
  "nedos": 3000,
  "lorbit": 11,
  "lcharg": true,
  "lwave": false,
  "lelf": false,
  "kpar": 4,
  "ncore": 12,
  "potcar_settings": {"version": "54", "xc": "PBE", "element_potcars": {}}
}
